{
    "KPlugin": {
        "Authors": [
            {
                "Email": "stephane@mankowski.fr",
                "Name": "Stephane MANKOWSKI",
                "Name[ca@valencia]": "Stephane MANKOWSKI",
                "Name[ca]": "Stephane MANKOWSKI",
                "Name[en_GB]": "Stephane MANKOWSKI",
                "Name[eo]": "Stephane MANKOWSKI",
                "Name[es]": "Stephane MANKOWSKI",
                "Name[fi]": "Stephane MANKOWSKI",
                "Name[fr]": "Stephane MANKOWSKI",
                "Name[gl]": "Stephane MANKOWSKI",
                "Name[ia]": "Stephane MANKOWSKI",
                "Name[it]": "Stephane MANKOWSKI",
                "Name[ka]": "Stephane MANKOWSKI",
                "Name[nl]": "Stephane MANKOWSKI",
                "Name[pl]": "Stephane MANKOWSKI",
                "Name[pt]": "Stephane MANKOWSKI",
                "Name[ru]": "Stephane MANKOWSKI",
                "Name[sk]": "Stephane MANKOWSKI",
                "Name[sl]": "Stephane MANKOWSKI",
                "Name[sv]": "Stephane MANKOWSKI",
                "Name[tr]": "Stephane MANKOWSKI",
                "Name[uk]": "Stephane MANKOWSKI",
                "Name[x-test]": "xxStephane MANKOWSKIxx"
            }
        ],
        "Category": "Plugins",
        "Description": "A Skrooge plugin to import OFX files",
        "Description[ca@valencia]": "Un connector de Skrooge per a importar fitxers OFX",
        "Description[ca]": "Un connector de l'Skrooge per a importar fitxers OFX",
        "Description[cs]": "Modul Skrooge pro import souborů OFX",
        "Description[en_GB]": "A Skrooge plugin to import OFX files",
        "Description[eo]": "Skrooge kromaĵo por importi OFX-dosierojn",
        "Description[es]": "Complemento de Skrooge para importar archivos OFX",
        "Description[fi]": "Skroogen OFX-tiedostojen tuontiliitännäinen",
        "Description[fr]": "Un module externe de Skrooge pour l'importation de fichiers « OFX »",
        "Description[gl]": "Un complemento de Skrooge para importar ficheiros OFX.",
        "Description[it]": "Un'estensione di Skrooge per importare i file OFX",
        "Description[ka]": "Skrooge -ის დამატება OFX -ის შემოსატანად",
        "Description[nl]": "Een Skrooge-plugin voor het importeren van OFX-bestanden",
        "Description[pl]": "Wtyczka Skrooge do importu plików OFX",
        "Description[pt]": "Um 'plugin' do Skrooge para importar ficheiros OFX",
        "Description[ru]": "Модуль импорта файлов OFX",
        "Description[sl]": "Vtičnik Skrooge za uvažanje datotek OFX",
        "Description[sv]": "Ett insticksprogram till Skrooge för att importera OFX-filer",
        "Description[tr]": "OFX dosyaları içe aktarmak için Varyemez eklentisi",
        "Description[uk]": "Додаток до Skrooge для імпортування даних з файлів OFX",
        "Description[x-test]": "xxA Skrooge plugin to import OFX filesxx",
        "EnabledByDefault": true,
        "Icon": "skrooge",
        "Id": "skrooge_import_ofx",
        "License": "GPL",
        "Name": "Skrooge import OFX plugin",
        "Name[bs]": "Skrooge dodatak za OFX uvoz",
        "Name[ca@valencia]": "Connector d'importació d'OFX de Skrooge",
        "Name[ca]": "Connector d'importació d'OFX de l'Skrooge",
        "Name[cs]": "Modul Skrooge pro import OFX",
        "Name[da]": "Plugin til import af OFX til Skrooge",
        "Name[de]": "Skrooge-OFX-Importmodul",
        "Name[el]": "Skrooge import OFX plugin",
        "Name[en_GB]": "Skrooge import OFX plugin",
        "Name[eo]": "Skrooge OFX-importa kromprogramo",
        "Name[es]": "Complemento de importación OFX en Skrooge",
        "Name[et]": "Skrooge OFX impordi plugin",
        "Name[fi]": "Skroogen OFX-tuontiliitännäinen",
        "Name[fr]": "Moteur externe de Skrooge pour l'importation « OFX »",
        "Name[gl]": "Complemento de importación de OFX a Skrooge",
        "Name[hu]": "Skrooge OFX importáló bővítmény",
        "Name[it]": "Estensione di Skrooge per l'importazione OFX",
        "Name[ka]": "Skrooge -ის დამატება OFX -ის შემოსატანად",
        "Name[lt]": "Skrooge OFX importavimo papildinys",
        "Name[nb]": "Skrooge-modul for OFX-import",
        "Name[nl]": "Plugin van Skrooge voor importeren van OFX",
        "Name[pl]": "Wtyczka importu OFX dla Skrooge",
        "Name[pt]": "'Plugin' de importação de OFX do Skrooge",
        "Name[pt_BR]": "Plugin de importação de OFX para o Skrooge",
        "Name[ru]": "Модуль импорта файлов OFX",
        "Name[sk]": "Skrooge plugin OFX import",
        "Name[sl]": "Vtičnik Skrooge uvoza OFX",
        "Name[sv]": "Skrooge OFX-importinsticksprogram",
        "Name[tr]": "Varyemez OFX İçe Aktarma Eklentisi",
        "Name[uk]": "Додаток імпортування OFX до Skrooge",
        "Name[x-test]": "xxSkrooge import OFX pluginxx",
        "Name[zh_TW]": "Skrooge 匯入 OFX 外掛程式",
        "Version": "1.0",
        "Website": "https://skrooge.org/"
    },
    "X-Krunner-ID": "Skrooge import OFX plugin"
}
