{
    "KPlugin": {
        "Authors": [
            {
                "Email": "stephane@mankowski.fr",
                "Name": "Stephane MANKOWSKI,miraks",
                "Name[ca@valencia]": "Stephane MANKOWSKI,miraks",
                "Name[ca]": "Stephane MANKOWSKI,miraks",
                "Name[en_GB]": "Stephane MANKOWSKI,miraks",
                "Name[eo]": "Stephane MANKOWSKI,miraks",
                "Name[es]": "Stephane MANKOWSKI,miraks",
                "Name[fi]": "Stephane MANKOWSKI,miraks",
                "Name[fr]": "Stephane MANKOWSKI, miraks",
                "Name[gl]": "Stephane MANKOWSKI, miraks",
                "Name[ia]": "Stephane MANKOWSKI,miraks",
                "Name[it]": "Stephane MANKOWSKI,miraks",
                "Name[ka]": "Stephane MANKOWSKI,miraks",
                "Name[nl]": "Stephane MANKOWSKI,miraks",
                "Name[pl]": "Stephane MANKOWSKI,miraks",
                "Name[pt]": "Stephane MANKOWSKI,miraks",
                "Name[ru]": "Stephane MANKOWSKI,miraks",
                "Name[sl]": "Stephane MANKOWSKI,miraks",
                "Name[sv]": "Stephane MANKOWSKI,miraks",
                "Name[tr]": "Stephane MANKOWSKI,miraks",
                "Name[uk]": "Stephane MANKOWSKI,miraks",
                "Name[x-test]": "xxStephane MANKOWSKI,miraksxx"
            }
        ],
        "Category": "Plugins",
        "Description": "A plugin to advise",
        "Description[ca@valencia]": "Un connector per a consells",
        "Description[ca]": "Un connector per a consells",
        "Description[en_GB]": "A plugin to advise",
        "Description[eo]": "Kromaĵo konsilinda",
        "Description[es]": "Complemento para mostrar consejos",
        "Description[fi]": "Neuvova liitännäinen",
        "Description[fr]": "Un module externe de conseils",
        "Description[gl]": "Un complemento para aconsellar.",
        "Description[ia]": "Un plugin per consiliar",
        "Description[it]": "Un'estensione per i suggerimenti",
        "Description[ka]": "რჩევის დამატება",
        "Description[nl]": "Een plugin voor advies",
        "Description[pl]": "Wtyczka do radzenia",
        "Description[pt]": "Um 'plugin' para conselhos",
        "Description[ru]": "Модуль рекомендаций",
        "Description[sl]": "Vtičnik za nasvet",
        "Description[sv]": "Ett insticksprogram för rådgivning",
        "Description[tr]": "Tavsiye için eklenti",
        "Description[uk]": "Додаток для порад",
        "Description[x-test]": "xxA plugin to advisexx",
        "EnabledByDefault": true,
        "Icon": "quickopen",
        "Id": "skg_advice",
        "License": "GPL",
        "Name": "Advice plugin",
        "Name[ar]": "ملحق النصيحة",
        "Name[bs]": "Priključak za savjet",
        "Name[ca@valencia]": "Connector de consells",
        "Name[ca]": "Connector de consells",
        "Name[cs]": "Rozšíření rádce",
        "Name[da]": "Råd-plugin",
        "Name[de]": "Empfehlungsmodul",
        "Name[el]": "Advice plugin",
        "Name[en_GB]": "Advice plugin",
        "Name[eo]": "Konsila kromaĵo",
        "Name[es]": "Complemento de consejos",
        "Name[et]": "Nõuandeplugin",
        "Name[fi]": "Neuvoliitännäinen",
        "Name[fr]": "Moteur externe de conseils",
        "Name[gl]": "Complemento de consellos",
        "Name[hu]": "Tanács bővítmény",
        "Name[ia]": "Plugin de consilio",
        "Name[it]": "Estensione per i suggerimenti",
        "Name[ka]": "რჩევების მოდული",
        "Name[lt]": "Patarimų papildinys",
        "Name[nb]": "Adviseringsmodul",
        "Name[nds]": "Raatslääg-Moduul",
        "Name[nl]": "Plug-in voor advies",
        "Name[pl]": "Wtyczka porad",
        "Name[pt]": "'Plugin' de conselho",
        "Name[pt_BR]": "Plugin de conselhos",
        "Name[ru]": "Модуль рекомендаций",
        "Name[sk]": "Plugin rád",
        "Name[sl]": "Vtičnik nasveta",
        "Name[sv]": "Rådinsticksprogram",
        "Name[tr]": "Tavsiye Eklentisi",
        "Name[uk]": "Додаток порад",
        "Name[x-test]": "xxAdvice pluginxx",
        "Name[zh_CN]": "建议插件",
        "Name[zh_TW]": "Advice 外掛程式",
        "ServiceTypes": [
            "SKG GUI/Plugin"
        ],
        "Version": "1.0",
        "Website": "https://skrooge.org/"
    },
    "X-Krunner-ID": "Advice plugin"
}
