{
    "KPlugin": {
        "Authors": [
            {
                "Email": "stephane@mankowski.fr",
                "Name": "Stephane MANKOWSKI",
                "Name[ca@valencia]": "Stephane MANKOWSKI",
                "Name[ca]": "Stephane MANKOWSKI",
                "Name[en_GB]": "Stephane MANKOWSKI",
                "Name[eo]": "Stephane MANKOWSKI",
                "Name[es]": "Stephane MANKOWSKI",
                "Name[fi]": "Stephane MANKOWSKI",
                "Name[fr]": "Stephane MANKOWSKI",
                "Name[gl]": "Stephane MANKOWSKI",
                "Name[ia]": "Stephane MANKOWSKI",
                "Name[it]": "Stephane MANKOWSKI",
                "Name[ka]": "Stephane MANKOWSKI",
                "Name[nl]": "Stephane MANKOWSKI",
                "Name[pl]": "Stephane MANKOWSKI",
                "Name[pt]": "Stephane MANKOWSKI",
                "Name[ru]": "Stephane MANKOWSKI",
                "Name[sk]": "Stephane MANKOWSKI",
                "Name[sl]": "Stephane MANKOWSKI",
                "Name[sv]": "Stephane MANKOWSKI",
                "Name[tr]": "Stephane MANKOWSKI",
                "Name[uk]": "Stephane MANKOWSKI",
                "Name[x-test]": "xxStephane MANKOWSKIxx"
            }
        ],
        "Category": "Plugins",
        "Description": "A Skrooge plugin to import PDF files",
        "Description[ca@valencia]": "Un connector de Skrooge per a importar fitxers PDF",
        "Description[ca]": "Un connector de l'Skrooge per a importar fitxers PDF",
        "Description[cs]": "Modul Skrooge pro import souborů PDF",
        "Description[en_GB]": "A Skrooge plugin to import PDF files",
        "Description[eo]": "Skrooge kromaĵo por importi PDF-dosierojn",
        "Description[es]": "Complemento de Skrooge para importar archivos PDF",
        "Description[fi]": "Skrooge-liitännäinen PDF-tiedostojen tuomiseen",
        "Description[fr]": "Un module externe de Skrooge pour l'importation de factures « PDF »",
        "Description[gl]": "Un complemento para Skrooge para importar ficheiros PDF.",
        "Description[it]": "Un'estensione di Skrooge per importare i file PDF",
        "Description[ka]": "Skrooge -ის დამატება PDF -ის შემოსატანად",
        "Description[nl]": "Een plug-in van Skrooge voor het importeren van PDF-bestanden",
        "Description[pl]": "Wtyczka Skrooge do importu plików PDF",
        "Description[pt]": "Um 'plugin' do Skrooge para importar ficheiros PDF",
        "Description[ru]": "Модуль импорта файлов PDF",
        "Description[sl]": "Vtičnik Skrooge za uvažanje datotek PDF",
        "Description[sv]": "Ett insticksprogram till Skrooge för att importera PDF-filer",
        "Description[tr]": "PDF dosyaları içe aktarmak için Varyemez eklentisi",
        "Description[uk]": "Додаток до Skrooge для імпортування даних з файлів PDF",
        "Description[x-test]": "xxA Skrooge plugin to import PDF filesxx",
        "EnabledByDefault": true,
        "Icon": "skrooge",
        "Id": "skrooge_import_pdf",
        "License": "GPL",
        "Name": "Skrooge import PDF plugin",
        "Name[ca@valencia]": "Connector d'importació de PDF de Skrooge",
        "Name[ca]": "Connector d'importació de PDF de l'Skrooge",
        "Name[cs]": "Modul Skrooge pro import PDF",
        "Name[de]": "Skrooge-PDF-Importmodul",
        "Name[el]": "Πρόσθετο του Skrooge για εισαγωγή PDF",
        "Name[en_GB]": "Skrooge import PDF plugin",
        "Name[eo]": "Skrooge PDF-importa kromprogramo",
        "Name[es]": "Complemento de importación PDF en Skrooge",
        "Name[et]": "Skrooge PDF impordi plugin",
        "Name[fi]": "Skroogen PDF-tuontiliitännäinen",
        "Name[fr]": "Moteur externe de Skrooge pour l'importation « PDF »",
        "Name[gl]": "Complemento para Skrooge de importación de PDF",
        "Name[it]": "Estensione di Skrooge per l'importazione PDF",
        "Name[ka]": "Skrooge -ის დამატება PDF -ის შემოსატანად",
        "Name[nl]": "Plug-in van Skrooge voor importeren van PDF",
        "Name[pl]": "Wtyczka importu PDF dla Skrooge",
        "Name[pt]": "'Plugin' de importação de PDF do Skrooge",
        "Name[pt_BR]": "Plugin de importação de PDF para o Skrooge",
        "Name[ru]": "Модуль импорта файлов PDF",
        "Name[sk]": "Skrooge plugin na import PDF",
        "Name[sl]": "Vtičnik Skrooge uvoza PDF",
        "Name[sv]": "Skrooge PDF-importinsticksprogram",
        "Name[tr]": "Varyemez PDF İçe Aktarma Eklentisi",
        "Name[uk]": "Додаток імпортування PDF до Skrooge",
        "Name[x-test]": "xxSkrooge import PDF pluginxx",
        "Version": "1.0",
        "Website": "https://skrooge.org/"
    },
    "X-Krunner-ID": "Skrooge import PDF plugin"
}
